…
Group By
========

Con summarise sumarizo toda la tabla y obtengo medidas (mínimo, máximo, etc...) de las variables que yo quiero. Combinándolo con el group\_by, calcularé estas medidas pero de los grupos que yo defina.

``` r
group_by(flights, UniqueCarrier)
```

    ## # A tibble: 7,009,728 x 29
    ## # Groups:   UniqueCarrier [20]
    ##     Year Month DayofMonth DayOfWeek DepTime CRSDepTime ArrTime CRSArrTime
    ##    <int> <int>      <int>     <int>   <int>      <int>   <int>      <int>
    ##  1  2008     1          3         4    2003       1955    2211       2225
    ##  2  2008     1          3         4     754        735    1002       1000
    ##  3  2008     1          3         4     628        620     804        750
    ##  4  2008     1          3         4     926        930    1054       1100
    ##  5  2008     1          3         4    1829       1755    1959       1925
    ##  6  2008     1          3         4    1940       1915    2121       2110
    ##  7  2008     1          3         4    1937       1830    2037       1940
    ##  8  2008     1          3         4    1039       1040    1132       1150
    ##  9  2008     1          3         4     617        615     652        650
    ## 10  2008     1          3         4    1620       1620    1639       1655
    ## # ... with 7,009,718 more rows, and 21 more variables:
    ## #   UniqueCarrier <chr>, FlightNum <int>, TailNum <chr>,
    ## #   ActualElapsedTime <int>, CRSElapsedTime <int>, AirTime <int>,
    ## #   ArrDelay <int>, DepDelay <int>, Origin <chr>, Dest <chr>,
    ## #   Distance <int>, TaxiIn <int>, TaxiOut <int>, Cancelled <int>,
    ## #   CancellationCode <chr>, Diverted <int>, CarrierDelay <int>,
    ## #   WeatherDelay <int>, NASDelay <int>, SecurityDelay <int>,
    ## #   LateAircraftDelay <int>
…
Top\_n
======

``` r
flights %>% 
  group_by(UniqueCarrier) %>% 
  top_n(2, ArrDelay) %>%  # Me coge el top 2 de ArrDelay
  select(UniqueCarrier,Dest, ArrDelay) %>% 
  arrange(desc(UniqueCarrier))
```

    ## # A tibble: 40 x 3
    ## # Groups:   UniqueCarrier [20]
    ##    UniqueCarrier Dest  ArrDelay
    ##    <chr>         <chr>    <int>
    ##  1 YV            IAD        606
    ##  2 YV            DEN        604
    ##  3 XE            EWR        838
    ##  4 XE            IAH        781
    ##  5 WN            DEN        677
    ##  6 WN            SAN        702
    ##  7 US            PHL        876
    ##  8 US            LAS        749
    ##  9 UA            HNL       1267
    ## 10 UA            LAX       1322
    ## # ... with 30 more rows
…
``` r
flights %>% select(TailNum) %>% 
  separate(TailNum, into = c('T1', 'T2'), sep = "2")
```

    ## Warning: Expected 2 pieces. Additional pieces discarded in 216895 rows [25,
    ## 51, 53, 114, 138, 146, 167, 175, 177, 181, 193, 214, 218, 311, 337, 349,
    ## 351, 370, 372, 386, ...].

    ## Warning: Expected 2 pieces. Missing pieces filled with `NA` in 4956800 rows
    ## [5, 7, 9, 10, 11, 12, 13, 14, 18, 19, 20, 21, 23, 24, 26, 29, 31, 32, 33,
    ## 35, ...].

    ## # A tibble: 7,009,728 x 2
    ##    T1     T2   
    ##    <chr>  <chr>
    ##  1 N71    SW   
    ##  2 N77    SW   
    ##  3 N4     8WN  
    ##  4 N61    SW   
    ##  5 N464WN <NA> 
    ##  6 N7     6SW  
    ##  7 N763SW <NA> 
    ##  8 N4     8WN  
    ##  9 N689SW <NA> 
    ## 10 N648SW <NA> 
    ## # ... with 7,009,718 more rows
…
``` r
flights2 <- flights %>% 
  select(Origin, Dest, TailNum, UniqueCarrier, DepDelay)

# Top delayed flight by airline
flights2 %>% 
  group_by(UniqueCarrier) %>%
  top_n(1, DepDelay) %>% 
  left_join(airlines, by = c("UniqueCarrier" = "Code"))
```

    ## # A tibble: 21 x 6
    ## # Groups:   UniqueCarrier [?]
    ##    Origin Dest  TailNum UniqueCarrier DepDelay Description                
    ##    <chr>  <chr> <chr>   <chr>            <int> <chr>                      
    ##  1 TUL    EWR   N17108  XE                 859 ExpressJet Airlines Inc. (~
    ##  2 MCO    PHL   N205UW  US                 886 US Airways Inc.            
    ##  3 ATW    ATL   N877AS  EV                 965 ExpressJet Airlines Inc.   
    ##  4 SAN    OGG   N748AL  AQ                 336 Aloha Airlines Inc.        
    ##  5 HNL    LAX   N21108  CO                1011 Continental Air Lines Inc. 
    ##  6 MDT    IAD   N715SF  YV                 607 Mesa Airlines Inc.         
    ##  7 SGF    CVG   N918CA  OH                 960 PSA Airlines Inc.          
    ##  8 RFD    DEN   N915SW  OO                 996 SkyWest Airlines Inc.      
    ##  9 LGA    MIA   N3CDAA  AA                1521 American Airlines Inc.     
    ## 10 LAS    PDX   N612AS  AS                 947 Alaska Airlines Inc.       
    ## # ... with 11 more rows
…
