…
Muestreo estratificado
======================

``` r
NN=nrow(diamonds) #tamaño de la poblacion
nn= 250 #tamaño muestral
```

**Preámbulo**:

``` r
diamonds %>% sample_n(nn) #muestreo simple de la base de datos "diamonds"
```

    ## # A tibble: 250 x 10
    ##    carat cut       color clarity depth table price     x     y     z
    ##    <dbl> <ord>     <ord> <ord>   <dbl> <dbl> <int> <dbl> <dbl> <dbl>
    ##  1 0.900 Good      F     VS2      63.8   55.  4309  6.09  6.13  3.90
    ##  2 1.01  Ideal     H     SI1      62.4   53.  4642  6.47  6.42  4.02
    ##  3 0.350 Premium   E     VS1      62.3   60.  1063  4.52  4.50  2.81
    ##  4 0.730 Ideal     D     SI2      59.9   57.  2770  5.92  5.89  3.54
    ##  5 0.410 Very Good D     VVS2     62.5   54.  1160  4.79  4.81  3.00
    ##  6 0.380 Ideal     G     VVS2     60.7   57.   873  4.70  4.73  2.86
    ##  7 0.320 Ideal     F     VS2      62.4   57.   828  4.38  4.34  2.72
    ##  8 1.80  Ideal     H     VS1      62.3   56. 15105  7.79  7.76  4.84
    ##  9 0.310 Ideal     H     VVS1     61.6   55.   687  4.37  4.40  2.70
    ## 10 0.550 Ideal     E     VS2      61.8   57.  1792  5.34  5.27  3.28
    ## # ... with 240 more rows
…
``` r
muestra <- diamonds %>% group_by(cut,color) %>% sample_frac(nn/NN) 
muestra2 <- muestra %>% summarise(media=mean(price),n = n())
```

Muestreo por conglomerado
=========================

``` r
diamonds$origen=sample(provincias,NN,replace=TRUE) #se asigna de manera artificial un estado a cada diamante
diamonds %>%  group_by(origen) %>% summarise(media=mean(price), n = n())
```

    ## # A tibble: 53 x 3
    ##    origen    media     n
    ##    <chr>     <dbl> <int>
    ##  1 Álava     4065.   990
    ##  2 Albacete  3797.  1055
    ##  3 Alicante  3798.  1052
    ##  4 Almería   4102.   983
    ##  5 Asturias  3823.  1065
    ##  6 Ávila     3905.  1063
    ##  7 Badajoz   4029.   996
    ##  8 Baleares  3877.  1057
    ##  9 Barcelona 3933.   984
    ## 10 Burgos    4001.  1091
    ## # ... with 43 more rows
…
