…
Todavía esta tabla no permite un análisis del texto. No podemos filtrar las palabras o calcular sus frecuencias, puesto que cada fila se compone de varias palabras combinadas. Necesitamos transformarla de manera que un token por fila .

A menudo, el token es una secuencia de caracteres entre dos separadores. Un separador puede ser un “blanco”, una puntuación, un paréntesis, etc. Para segmentar el texto en tokens individuales y transformarlo en una estructura de datos utilizamos aquí la función `unnest_tokens` del paquete `tidytext`.

``` r
require(tidytext)
```

    ## Loading required package: tidytext

``` r
texto_df %>% unnest_tokens(palabra, texto)
```

    ## # A tibble: 51 x 2
    ##     fila palabra 
    ##    <int> <chr>   
    ##  1     1 eso     
    ##  2     1 es      
    ##  3     1 insultar
    ##  4     1 al      
    ##  5     1 lector  
    ##  6     1 es      
    ##  7     1 llamarle
    ##  8     1 torpe   
    ##  9     2 es      
    ## 10     2 decirle 
    ## # ... with 41 more rows

``` r
# Me separa todo y me lo pone por defecto en minúscula. También me conserva la fila en la que estaba.

# Los argumentos de la función se pueden cambiar (tema mayúsculas, etc...)
```

Por ejemplo: descomponer en grupos de dos palabras:

``` r
texto_df %>% unnest_tokens(palabra, texto, token = "ngrams", n = 2)
```

    ## # A tibble: 47 x 2
    ##     fila palabra       
    ##    <int> <chr>         
    ##  1     1 eso es        
    ##  2     1 es insultar   
    ##  3     1 insultar al   
    ##  4     1 al lector     
    ##  5     1 lector es     
    ##  6     1 es llamarle   
    ##  7     1 llamarle torpe
    ##  8     2 es decirle    
    ##  9     2 decirle fíjate
    ## 10     2 fíjate hombre 
    ## # ... with 37 more rows
…
``` r
tokens <- libros %>% unnest_tokens(word, text)
tokens
```

    ## # A tibble: 725,055 x 4
    ##    book                linenumber chapter word       
    ##    <fct>                    <int>   <int> <chr>      
    ##  1 Sense & Sensibility          1       0 sense      
    ##  2 Sense & Sensibility          1       0 and        
    ##  3 Sense & Sensibility          1       0 sensibility
    ##  4 Sense & Sensibility          3       0 by         
    ##  5 Sense & Sensibility          3       0 jane       
    ##  6 Sense & Sensibility          3       0 austen     
    ##  7 Sense & Sensibility          5       0 1811       
    ##  8 Sense & Sensibility         10       1 chapter    
    ##  9 Sense & Sensibility         10       1 1          
    ## 10 Sense & Sensibility         13       1 the        
    ## # ... with 725,045 more rows
…
Esto representa las palabras que se repiten mucho en todo el corpus (es decir, en todas las novelas). Si quiero ver qué palabras se repiten mucho en CADA novela:

**Frecuencia inversa de documentos**: lo que habíamos comentado de utilizar la frecuencia del corpus:. Voy a asociar a cada palabra una medida de lo común que es dentro del corpus.

``` r
book_words <- austen_books() %>% unnest_tokens(word, text) %>%
  count(book, word, sort = TRUE) %>%
  ungroup()

freq_rel <- book_words %>% bind_tf_idf(word, book, n)
freq_rel
```

    ## # A tibble: 40,379 x 6
    ##    book              word      n     tf   idf tf_idf
    ##    <fct>             <chr> <int>  <dbl> <dbl>  <dbl>
    ##  1 Mansfield Park    the    6206 0.0387    0.     0.
    ##  2 Mansfield Park    to     5475 0.0341    0.     0.
    ##  3 Mansfield Park    and    5438 0.0339    0.     0.
    ##  4 Emma              to     5239 0.0325    0.     0.
    ##  5 Emma              the    5201 0.0323    0.     0.
    ##  6 Emma              and    4896 0.0304    0.     0.
    ##  7 Mansfield Park    of     4778 0.0298    0.     0.
    ##  8 Pride & Prejudice the    4331 0.0354    0.     0.
    ##  9 Emma              of     4291 0.0267    0.     0.
    ## 10 Pride & Prejudice to     4162 0.0341    0.     0.
    ## # ... with 40,369 more rows

``` r
freq_rel %>% arrange(desc(tf_idf))
```

    ## # A tibble: 40,379 x 6
    ##    book                word          n      tf   idf  tf_idf
    ##    <fct>               <chr>     <int>   <dbl> <dbl>   <dbl>
    ##  1 Sense & Sensibility elinor      623 0.00519  1.79 0.00931
    ##  2 Sense & Sensibility marianne    492 0.00410  1.79 0.00735
    ##  3 Mansfield Park      crawford    493 0.00307  1.79 0.00551
    ##  4 Pride & Prejudice   darcy       373 0.00305  1.79 0.00547
    ##  5 Persuasion          elliot      254 0.00304  1.79 0.00544
    ##  6 Emma                emma        786 0.00488  1.10 0.00536
    ##  7 Northanger Abbey    tilney      196 0.00252  1.79 0.00452
    ##  8 Emma                weston      389 0.00242  1.79 0.00433
    ##  9 Pride & Prejudice   bennet      294 0.00241  1.79 0.00431
    ## 10 Persuasion          wentworth   191 0.00228  1.79 0.00409
    ## # ... with 40,369 more rows
…
